﻿Сводная таблица некоторых форматов файлов и степеней сжатия.
ФОРМАТ - ИСХОДНЫЙ ФАЙЛ - СЖАТЫЙ ФАЙЛ - СТЕПЕНЬ СЖАТИЯ

.mp4 - 24,004 kb - 23,992 kb - 1,0005
.txt - 1,440 kb - 883 kb - 1,6308
.jpg - 558 kb - 559 kb - 0
.csv - 104 kb - 69 kb - 1,5072
.exe - 2,492 kb - 2,452 kb - 1,0163
.dll - 3,783 kb - 3,020 kb - 1,2526
.pdf - 792 kb - 670 kb - 1,1820
.pptx - 20,737 kb - 20,722 kb - 1,0007